{
  "biomes": "minecraft:lush_caves",
  "adapt_noise": false,
  "spawn_overrides": {},
  "type": "minecraft:jigsaw",
  "start_pool": "cobblemon:fossils/lush_fossils_arch",
  "size": 7,
  "step": "underground_structures",
  "start_height": {
    "type": "minecraft:uniform",
    "max_inclusive": {
      "absolute": 10
    },
    "min_inclusive": {
      "absolute": -37
    }
  },
  "max_distance_from_center": 100,
  "use_expansion_hack": false,
  "terrain_adaptation": "none"
}