{
  "biomes": [
    "minecraft:warm_ocean",
    "minecraft:lukewarm_ocean",
    "minecraft:deep_lukewarm_ocean"
  ],
  "adapt_noise": false,
  "spawn_overrides": {},
  "type": "minecraft:jigsaw",
  "start_pool": "cobblemon:fossils/warm_ocean_fossils_vents",
  "size": 7,
  "step": "surface_structures",
  "start_height": {
    "absolute": 0
  },
  "project_start_to_heightmap": "OCEAN_FLOOR_WG",
  "max_distance_from_center": 116,
  "terrain_adaptation": "none",
  "use_expansion_hack": false
}