{
	"format_version": "1.8.0",
	"animations": {
		"animation.dracozolt_fetus.sleep": {
			"loop": true,
			"bones": {
				"body": {
					"rotation": [-10, 0, 0],
					"position": [0, 0, 0.7]
				},
				"tail": {
					"rotation": [-25, 0, 0]
				},
				"tail2": {
					"rotation": [-25, 0, 0]
				},
				"leg_right": {
					"rotation": [-37.5, 10, 5]
				},
				"leg_right2": {
					"rotation": [40, 0, 0]
				},
				"foot_right": {
					"rotation": [-60, 0, 0]
				},
				"leg_left": {
					"rotation": [-37.5, -10, -5]
				},
				"leg_left2": {
					"rotation": [40, 0, 0]
				},
				"foot_left": {
					"rotation": [-60, 0, 0]
				},
				"torso2": {
					"rotation": [5, 0, 0]
				},
				"arm_right": {
					"rotation": [15, -50, -55]
				},
				"arm_right2": {
					"rotation": [0, -80, 0]
				},
				"arm_fin_right": {
					"rotation": [0, -2, 15]
				},
				"arm_right3": {
					"rotation": [0, 70, 0]
				},
				"arm_left": {
					"rotation": [15, 50, 55]
				},
				"arm_left2": {
					"rotation": [0, 80, 0]
				},
				"arm_fin_left": {
					"rotation": [0, 2, -15]
				},
				"arm_left3": {
					"rotation": [0, -70, 0]
				},
				"neck": {
					"rotation": [7, 0, 0]
				},
				"neck2": {
					"rotation": [67.5, 0, 0]
				},
				"head": {
					"rotation": [60, 0, 0]
				}
			}
		}
	}
}