{
  "asset_name": "moon_stone",
  "description": {
    "translate": "trim_material.cobblemon.moon_stone",
    "fallback": "Moon Stone",
    "color": "#6658B5"
  },
  "ingredient": "cobblemon:moon_stone",
  "item_model_index": 0.2626
}
