{
  "asset_name": "sky_tumblestone",
  "description": {
    "translate": "trim_material.cobblemon.sky_tumblestone",
    "fallback": "Sky Tumblestone",
    "color": "#B5FFF8"
  },
  "ingredient": "cobblemon:sky_tumblestone",
  "item_model_index": 0.2634
}
