{
  "name": "cobblemon:lush_fossils_pond",
  "fallback": "minecraft:empty",
  "elements": [
    {
      "weight": 1,
      "element": {
        "location": "cobblemon:fossils/lush/pond",
        "element_type": "minecraft:single_pool_element",
        "processors": "cobblemon:lush_fossils_pond",
        "projection": "rigid"
      }
    }
  ]
}