{
  "name": "cobblemon:warm_ocean_fossil_vents",
  "fallback": "minecraft:empty",
  "elements": [
    {
      "weight": 10,
      "element": {
        "location": "cobblemon:fossils/ocean/warm/vent_small",
        "element_type": "minecraft:single_pool_element",
        "processors": "cobblemon:warm_ocean_fossil_vents",
        "projection": "rigid"
      }
    },
    {
      "weight": 10,
      "element": {
        "location": "cobblemon:fossils/ocean/warm/vent_medium",
        "element_type": "minecraft:single_pool_element",
        "projection": "rigid",
        "processors": "cobblemon:warm_ocean_fossil_vents"
      }
    },
    {
      "weight": 8,
      "element": {
        "location": "cobblemon:fossils/ocean/warm/vent_large",
        "element_type": "minecraft:single_pool_element",
        "projection": "rigid",
        "processors": "cobblemon:warm_ocean_fossil_vents"
      }
    }
  ]
}