{
  "parent": "cobblemon:recipes/root",
  "criteria": {
    "has_glass": {
      "conditions": {
        "items": [
          {
            "items": [
              "minecraft:glass"
            ]
          }
        ]
      },
      "trigger": "minecraft:inventory_changed"
    },
    "has_the_recipe": {
      "conditions": {
        "recipe": "cobblemon:fossil_tube"
      },
      "trigger": "minecraft:recipe_unlocked"
    }
  },
  "requirements": [
    [
      "has_glass",
      "has_the_recipe"
    ]
  ],
  "rewards": {
    "recipes": [
      "cobblemon:fossil_tube"
    ]
  }
}