﻿{
  "name": "Gumshoos",
  "nationalPokedexNumber": 735,
  "primaryType": "normal",
  "abilities": [
    "stakeout",
    "strongjaw",
    "h:adaptability"
  ],
  "baseStats": {
    "hp": 88,
    "attack": 110,
    "defence": 60,
    "special_attack": 55,
    "special_defence": 60,
    "speed": 45
  },
  "catchRate": 127,
  "maleRatio": 0.5,
  "shoulderMountable": false,
  "forms": [
    {
      "name": "Totem",
      "primaryType": "normal",
      "abilities": [
        "adaptability"
      ],
      "baseStats": {
        "hp": 88,
        "attack": 110,
        "defence": 60,
        "special_attack": 55,
        "special_defence": 60,
        "speed": 45
      },
      "catchRate": 127,
      "maleRatio": 0.5,
      "baseExperienceYield": 146,
      "baseFriendship": 70,
      "evYield": {
        "hp": 0,
        "attack": 2,
        "defence": 0,
        "special_attack": 0,
        "special_defence": 0,
        "speed": 0
      },
      "experienceGroup": "medium_fast",
      "eggCycles": 15,
      "eggGroups": [
        "field"
      ],
      "moves": [
        "1:leer",
        "1:pursuit",
        "1:sandattack",
        "1:tackle",
        "13:odorsleuth",
        "16:bide",
        "19:bite",
        "23:mudslap",
        "27:superfang",
        "31:takedown",
        "35:scaryface",
        "39:crunch",
        "43:hyperfang",
        "47:yawn",
        "51:thrash",
        "55:rest",
        "tm:attract",
        "tm:bulldoze",
        "tm:confide",
        "tm:doubleteam",
        "tm:earthquake",
        "tm:echoedvoice",
        "tm:facade",
        "tm:fling",
        "tm:frustration",
        "tm:hiddenpower",
        "tm:payback",
        "tm:protect",
        "tm:rest",
        "tm:return",
        "tm:roar",
        "tm:rocktomb",
        "tm:round",
        "tm:sandstorm",
        "tm:sleeptalk",
        "tm:substitute",
        "tm:swagger",
        "tm:taunt",
        "tm:thief",
        "tm:torment",
        "tm:toxic",
        "tm:uturn",
        "tm:workup",
        "tutor:bide",
        "tutor:bite",
        "tutor:block",
        "tutor:dualchop",
        "tutor:endeavor",
        "tutor:firepunch",
        "tutor:icepunch",
        "tutor:ironhead",
        "tutor:irontail",
        "tutor:lastresort",
        "tutor:odorsleuth",
        "tutor:sandattack",
        "tutor:shockwave",
        "tutor:snore",
        "tutor:stompingtantrum",
        "tutor:superfang",
        "tutor:thunderpunch",
        "tutor:uproar",
        "tutor:zenheadbutt"
      ],
      "labels": [
        "gen7",
        "totem"
      ],
      "aspects": [
        "totem"
      ],
      "height": 14,
      "weight": 600,
      "cannotDynamax": false,
      "battleOnly": false
    }
  ],
  "baseExperienceYield": 146,
  "experienceGroup": "medium_fast",
  "eggCycles": 15,
  "eggGroups": [
    "field"
  ],
  "moves": [
    "1:leer",
    "1:payback",
    "1:pursuit",
    "1:sandattack",
    "1:tackle",
    "13:odorsleuth",
    "13:workup",
    "16:bide",
    "19:bite",
    "23:mudslap",
    "27:superfang",
    "31:takedown",
    "35:scaryface",
    "39:crunch",
    "43:hyperfang",
    "43:yawn",
    "47:thrash",
    "52:rest",
    "tm:attract",
    "tm:bodyslam",
    "tm:bulldoze",
    "tm:chillingwater",
    "tm:confide",
    "tm:crunch",
    "tm:curse",
    "tm:dig",
    "tm:doubleedge",
    "tm:doubleteam",
    "tm:earthquake",
    "tm:echoedvoice",
    "tm:endeavor",
    "tm:endure",
    "tm:facade",
    "tm:firefang",
    "tm:firepunch",
    "tm:fling",
    "tm:focuspunch",
    "tm:frustration",
    "tm:gigaimpact",
    "tm:helpinghand",
    "tm:hiddenpower",
    "tm:hyperbeam",
    "tm:icefang",
    "tm:icepunch",
    "tm:ironhead",
    "tm:knockoff",
    "tm:lowsweep",
    "tm:mudshot",
    "tm:mudslap",
    "tm:payback",
    "tm:protect",
    "tm:psychicfangs",
    "tm:raindance",
    "tm:rest",
    "tm:return",
    "tm:reversal",
    "tm:roar",
    "tm:rocktomb",
    "tm:round",
    "tm:sandstorm",
    "tm:scaryface",
    "tm:seedbomb",
    "tm:sleeptalk",
    "tm:stompingtantrum",
    "tm:substitute",
    "tm:sunnyday",
    "tm:superfang",
    "tm:swagger",
    "tm:takedown",
    "tm:taunt",
    "tm:terablast",
    "tm:thief",
    "tm:thunderfang",
    "tm:thunderpunch",
    "tm:torment",
    "tm:toxic",
    "tm:trailblaze",
    "tm:uturn",
    "tm:wildcharge",
    "tm:workup",
    "tm:zenheadbutt",
    "tutor:block",
    "tutor:dualchop",
    "tutor:endeavor",
    "tutor:firepunch",
    "tutor:icepunch",
    "tutor:ironhead",
    "tutor:irontail",
    "tutor:lastresort",
    "tutor:shockwave",
    "tutor:snore",
    "tutor:stompingtantrum",
    "tutor:superfang",
    "tutor:thunderpunch",
    "tutor:uproar",
    "tutor:zenheadbutt"
  ],
  "labels": [
    "gen7"
  ],
  "pokedex": [
    "cobblemon.species.gumshoos.desc"
  ],
  "preEvolution": "yungoos",
  "evolutions": [],
  "baseScale": 1,
  "hitbox": {
    "width": 1,
    "height": 1,
    "fixed": false
  },
  "baseFriendship": 70,
  "evYield": {
    "hp": 0,
    "attack": 2,
    "defence": 0,
    "special_attack": 0,
    "special_defence": 0,
    "speed": 0
  },
  "height": 7,
  "weight": 142,
  "aspects": [],
  "cannotDynamax": false,
  "drops": {
    "amount": 1,
    "entries": [
      {
        "item": "cobblemon:pecha_berry",
        "percentage": 5.0
      }
    ]
  }
}