﻿{
  "name": "Silvally",
  "nationalPokedexNumber": 773,
  "primaryType": "normal",
  "abilities": [
    "rkssystem"
  ],
  "baseStats": {
    "hp": 95,
    "attack": 95,
    "defence": 95,
    "special_attack": 95,
    "special_defence": 95,
    "speed": 95
  },
  "catchRate": 3,
  "maleRatio": -1,
  "shoulderMountable": false,
  "forms": [
    {
      "name": "Bug",
      "primaryType": "bug",
      "abilities": [
        "rkssystem"
      ],
      "baseStats": {
        "hp": 95,
        "attack": 95,
        "defence": 95,
        "special_attack": 95,
        "special_defence": 95,
        "speed": 95
      },
      "catchRate": 3,
      "maleRatio": -1,
      "baseExperienceYield": 285,
      "baseFriendship": 0,
      "evYield": {
        "hp": 3,
        "attack": 0,
        "defence": 0,
        "special_attack": 0,
        "special_defence": 0,
        "speed": 0
      },
      "experienceGroup": "slow",
      "eggCycles": 120,
      "eggGroups": [
        "undiscovered"
      ],
      "labels": [
        "gen7",
        "legendary"
      ],
      "aspects": [
        "bug"
      ],
      "height": 23,
      "weight": 1005,
      "cannotDynamax": false,
      "battleOnly": false
    },
    {
      "name": "Dark",
      "primaryType": "dark",
      "abilities": [
        "rkssystem"
      ],
      "baseStats": {
        "hp": 95,
        "attack": 95,
        "defence": 95,
        "special_attack": 95,
        "special_defence": 95,
        "speed": 95
      },
      "catchRate": 3,
      "maleRatio": -1,
      "baseExperienceYield": 285,
      "baseFriendship": 0,
      "evYield": {
        "hp": 3,
        "attack": 0,
        "defence": 0,
        "special_attack": 0,
        "special_defence": 0,
        "speed": 0
      },
      "experienceGroup": "slow",
      "eggCycles": 120,
      "eggGroups": [
        "undiscovered"
      ],
      "labels": [
        "gen7",
        "legendary"
      ],
      "aspects": [
        "dark"
      ],
      "height": 23,
      "weight": 1005,
      "cannotDynamax": false,
      "battleOnly": false
    },
    {
      "name": "Dragon",
      "primaryType": "dragon",
      "abilities": [
        "rkssystem"
      ],
      "baseStats": {
        "hp": 95,
        "attack": 95,
        "defence": 95,
        "special_attack": 95,
        "special_defence": 95,
        "speed": 95
      },
      "catchRate": 3,
      "maleRatio": -1,
      "baseExperienceYield": 285,
      "baseFriendship": 0,
      "evYield": {
        "hp": 3,
        "attack": 0,
        "defence": 0,
        "special_attack": 0,
        "special_defence": 0,
        "speed": 0
      },
      "experienceGroup": "slow",
      "eggCycles": 120,
      "eggGroups": [
        "undiscovered"
      ],
      "labels": [
        "gen7",
        "legendary"
      ],
      "aspects": [
        "dragon"
      ],
      "height": 23,
      "weight": 1005,
      "cannotDynamax": false,
      "battleOnly": false
    },
    {
      "name": "Electric",
      "primaryType": "electric",
      "abilities": [
        "rkssystem"
      ],
      "baseStats": {
        "hp": 95,
        "attack": 95,
        "defence": 95,
        "special_attack": 95,
        "special_defence": 95,
        "speed": 95
      },
      "catchRate": 3,
      "maleRatio": -1,
      "baseExperienceYield": 285,
      "baseFriendship": 0,
      "evYield": {
        "hp": 3,
        "attack": 0,
        "defence": 0,
        "special_attack": 0,
        "special_defence": 0,
        "speed": 0
      },
      "experienceGroup": "slow",
      "eggCycles": 120,
      "eggGroups": [
        "undiscovered"
      ],
      "labels": [
        "gen7",
        "legendary"
      ],
      "aspects": [
        "electric"
      ],
      "height": 23,
      "weight": 1005,
      "cannotDynamax": false,
      "battleOnly": false
    },
    {
      "name": "Fairy",
      "primaryType": "fairy",
      "abilities": [
        "rkssystem"
      ],
      "baseStats": {
        "hp": 95,
        "attack": 95,
        "defence": 95,
        "special_attack": 95,
        "special_defence": 95,
        "speed": 95
      },
      "catchRate": 3,
      "maleRatio": -1,
      "baseExperienceYield": 285,
      "baseFriendship": 0,
      "evYield": {
        "hp": 3,
        "attack": 0,
        "defence": 0,
        "special_attack": 0,
        "special_defence": 0,
        "speed": 0
      },
      "experienceGroup": "slow",
      "eggCycles": 120,
      "eggGroups": [
        "undiscovered"
      ],
      "labels": [
        "gen7",
        "legendary"
      ],
      "aspects": [
        "fairy"
      ],
      "height": 23,
      "weight": 1005,
      "cannotDynamax": false,
      "battleOnly": false
    },
    {
      "name": "Fighting",
      "primaryType": "fighting",
      "abilities": [
        "rkssystem"
      ],
      "baseStats": {
        "hp": 95,
        "attack": 95,
        "defence": 95,
        "special_attack": 95,
        "special_defence": 95,
        "speed": 95
      },
      "catchRate": 3,
      "maleRatio": -1,
      "baseExperienceYield": 285,
      "baseFriendship": 0,
      "evYield": {
        "hp": 3,
        "attack": 0,
        "defence": 0,
        "special_attack": 0,
        "special_defence": 0,
        "speed": 0
      },
      "experienceGroup": "slow",
      "eggCycles": 120,
      "eggGroups": [
        "undiscovered"
      ],
      "labels": [
        "gen7",
        "legendary"
      ],
      "aspects": [
        "fighting"
      ],
      "height": 23,
      "weight": 1005,
      "cannotDynamax": false,
      "battleOnly": false
    },
    {
      "name": "Fire",
      "primaryType": "fire",
      "abilities": [
        "rkssystem"
      ],
      "baseStats": {
        "hp": 95,
        "attack": 95,
        "defence": 95,
        "special_attack": 95,
        "special_defence": 95,
        "speed": 95
      },
      "catchRate": 3,
      "maleRatio": -1,
      "baseExperienceYield": 285,
      "baseFriendship": 0,
      "evYield": {
        "hp": 3,
        "attack": 0,
        "defence": 0,
        "special_attack": 0,
        "special_defence": 0,
        "speed": 0
      },
      "experienceGroup": "slow",
      "eggCycles": 120,
      "eggGroups": [
        "undiscovered"
      ],
      "labels": [
        "gen7",
        "legendary"
      ],
      "aspects": [
        "fire"
      ],
      "height": 23,
      "weight": 1005,
      "cannotDynamax": false,
      "battleOnly": false
    },
    {
      "name": "Flying",
      "primaryType": "flying",
      "abilities": [
        "rkssystem"
      ],
      "baseStats": {
        "hp": 95,
        "attack": 95,
        "defence": 95,
        "special_attack": 95,
        "special_defence": 95,
        "speed": 95
      },
      "catchRate": 3,
      "maleRatio": -1,
      "baseExperienceYield": 285,
      "baseFriendship": 0,
      "evYield": {
        "hp": 3,
        "attack": 0,
        "defence": 0,
        "special_attack": 0,
        "special_defence": 0,
        "speed": 0
      },
      "experienceGroup": "slow",
      "eggCycles": 120,
      "eggGroups": [
        "undiscovered"
      ],
      "labels": [
        "gen7",
        "legendary"
      ],
      "aspects": [
        "flying"
      ],
      "height": 23,
      "weight": 1005,
      "cannotDynamax": false,
      "battleOnly": false
    },
    {
      "name": "Ghost",
      "primaryType": "ghost",
      "abilities": [
        "rkssystem"
      ],
      "baseStats": {
        "hp": 95,
        "attack": 95,
        "defence": 95,
        "special_attack": 95,
        "special_defence": 95,
        "speed": 95
      },
      "catchRate": 3,
      "maleRatio": -1,
      "baseExperienceYield": 285,
      "baseFriendship": 0,
      "evYield": {
        "hp": 3,
        "attack": 0,
        "defence": 0,
        "special_attack": 0,
        "special_defence": 0,
        "speed": 0
      },
      "experienceGroup": "slow",
      "eggCycles": 120,
      "eggGroups": [
        "undiscovered"
      ],
      "labels": [
        "gen7",
        "legendary"
      ],
      "aspects": [
        "ghost"
      ],
      "height": 23,
      "weight": 1005,
      "cannotDynamax": false,
      "battleOnly": false
    },
    {
      "name": "Grass",
      "primaryType": "grass",
      "abilities": [
        "rkssystem"
      ],
      "baseStats": {
        "hp": 95,
        "attack": 95,
        "defence": 95,
        "special_attack": 95,
        "special_defence": 95,
        "speed": 95
      },
      "catchRate": 3,
      "maleRatio": -1,
      "baseExperienceYield": 285,
      "baseFriendship": 0,
      "evYield": {
        "hp": 3,
        "attack": 0,
        "defence": 0,
        "special_attack": 0,
        "special_defence": 0,
        "speed": 0
      },
      "experienceGroup": "slow",
      "eggCycles": 120,
      "eggGroups": [
        "undiscovered"
      ],
      "labels": [
        "gen7",
        "legendary"
      ],
      "aspects": [
        "grass"
      ],
      "height": 23,
      "weight": 1005,
      "cannotDynamax": false,
      "battleOnly": false
    },
    {
      "name": "Ground",
      "primaryType": "ground",
      "abilities": [
        "rkssystem"
      ],
      "baseStats": {
        "hp": 95,
        "attack": 95,
        "defence": 95,
        "special_attack": 95,
        "special_defence": 95,
        "speed": 95
      },
      "catchRate": 3,
      "maleRatio": -1,
      "baseExperienceYield": 285,
      "baseFriendship": 0,
      "evYield": {
        "hp": 3,
        "attack": 0,
        "defence": 0,
        "special_attack": 0,
        "special_defence": 0,
        "speed": 0
      },
      "experienceGroup": "slow",
      "eggCycles": 120,
      "eggGroups": [
        "undiscovered"
      ],
      "labels": [
        "gen7",
        "legendary"
      ],
      "aspects": [
        "ground"
      ],
      "height": 23,
      "weight": 1005,
      "cannotDynamax": false,
      "battleOnly": false
    },
    {
      "name": "Ice",
      "primaryType": "ice",
      "abilities": [
        "rkssystem"
      ],
      "baseStats": {
        "hp": 95,
        "attack": 95,
        "defence": 95,
        "special_attack": 95,
        "special_defence": 95,
        "speed": 95
      },
      "catchRate": 3,
      "maleRatio": -1,
      "baseExperienceYield": 285,
      "baseFriendship": 0,
      "evYield": {
        "hp": 3,
        "attack": 0,
        "defence": 0,
        "special_attack": 0,
        "special_defence": 0,
        "speed": 0
      },
      "experienceGroup": "slow",
      "eggCycles": 120,
      "eggGroups": [
        "undiscovered"
      ],
      "labels": [
        "gen7",
        "legendary"
      ],
      "aspects": [
        "ice"
      ],
      "height": 23,
      "weight": 1005,
      "cannotDynamax": false,
      "battleOnly": false
    },
    {
      "name": "Poison",
      "primaryType": "poison",
      "abilities": [
        "rkssystem"
      ],
      "baseStats": {
        "hp": 95,
        "attack": 95,
        "defence": 95,
        "special_attack": 95,
        "special_defence": 95,
        "speed": 95
      },
      "catchRate": 3,
      "maleRatio": -1,
      "baseExperienceYield": 285,
      "baseFriendship": 0,
      "evYield": {
        "hp": 3,
        "attack": 0,
        "defence": 0,
        "special_attack": 0,
        "special_defence": 0,
        "speed": 0
      },
      "experienceGroup": "slow",
      "eggCycles": 120,
      "eggGroups": [
        "undiscovered"
      ],
      "labels": [
        "gen7",
        "legendary"
      ],
      "aspects": [
        "poison"
      ],
      "height": 23,
      "weight": 1005,
      "cannotDynamax": false,
      "battleOnly": false
    },
    {
      "name": "Psychic",
      "primaryType": "psychic",
      "abilities": [
        "rkssystem"
      ],
      "baseStats": {
        "hp": 95,
        "attack": 95,
        "defence": 95,
        "special_attack": 95,
        "special_defence": 95,
        "speed": 95
      },
      "catchRate": 3,
      "maleRatio": -1,
      "baseExperienceYield": 285,
      "baseFriendship": 0,
      "evYield": {
        "hp": 3,
        "attack": 0,
        "defence": 0,
        "special_attack": 0,
        "special_defence": 0,
        "speed": 0
      },
      "experienceGroup": "slow",
      "eggCycles": 120,
      "eggGroups": [
        "undiscovered"
      ],
      "labels": [
        "gen7",
        "legendary"
      ],
      "aspects": [
        "psychic"
      ],
      "height": 23,
      "weight": 1005,
      "cannotDynamax": false,
      "battleOnly": false
    },
    {
      "name": "Rock",
      "primaryType": "rock",
      "abilities": [
        "rkssystem"
      ],
      "baseStats": {
        "hp": 95,
        "attack": 95,
        "defence": 95,
        "special_attack": 95,
        "special_defence": 95,
        "speed": 95
      },
      "catchRate": 3,
      "maleRatio": -1,
      "baseExperienceYield": 285,
      "baseFriendship": 0,
      "evYield": {
        "hp": 3,
        "attack": 0,
        "defence": 0,
        "special_attack": 0,
        "special_defence": 0,
        "speed": 0
      },
      "experienceGroup": "slow",
      "eggCycles": 120,
      "eggGroups": [
        "undiscovered"
      ],
      "labels": [
        "gen7",
        "legendary"
      ],
      "aspects": [
        "rock"
      ],
      "height": 23,
      "weight": 1005,
      "cannotDynamax": false,
      "battleOnly": false
    },
    {
      "name": "Steel",
      "primaryType": "steel",
      "abilities": [
        "rkssystem"
      ],
      "baseStats": {
        "hp": 95,
        "attack": 95,
        "defence": 95,
        "special_attack": 95,
        "special_defence": 95,
        "speed": 95
      },
      "catchRate": 3,
      "maleRatio": -1,
      "baseExperienceYield": 285,
      "baseFriendship": 0,
      "evYield": {
        "hp": 3,
        "attack": 0,
        "defence": 0,
        "special_attack": 0,
        "special_defence": 0,
        "speed": 0
      },
      "experienceGroup": "slow",
      "eggCycles": 120,
      "eggGroups": [
        "undiscovered"
      ],
      "labels": [
        "gen7",
        "legendary"
      ],
      "aspects": [
        "steel"
      ],
      "height": 23,
      "weight": 1005,
      "cannotDynamax": false,
      "battleOnly": false
    },
    {
      "name": "Water",
      "primaryType": "water",
      "abilities": [
        "rkssystem"
      ],
      "baseStats": {
        "hp": 95,
        "attack": 95,
        "defence": 95,
        "special_attack": 95,
        "special_defence": 95,
        "speed": 95
      },
      "catchRate": 3,
      "maleRatio": -1,
      "baseExperienceYield": 285,
      "baseFriendship": 0,
      "evYield": {
        "hp": 3,
        "attack": 0,
        "defence": 0,
        "special_attack": 0,
        "special_defence": 0,
        "speed": 0
      },
      "experienceGroup": "slow",
      "eggCycles": 120,
      "eggGroups": [
        "undiscovered"
      ],
      "labels": [
        "gen7",
        "legendary"
      ],
      "aspects": [
        "water"
      ],
      "height": 23,
      "weight": 1005,
      "cannotDynamax": false,
      "battleOnly": false
    }
  ],
  "baseExperienceYield": 285,
  "experienceGroup": "slow",
  "eggCycles": 120,
  "eggGroups": [
    "undiscovered"
  ],
  "moves": [
    "1:aerialace",
    "1:bite",
    "1:explosion",
    "1:firefang",
    "1:healblock",
    "1:icefang",
    "1:imprison",
    "1:ironhead",
    "1:multiattack",
    "1:poisonfang",
    "1:scaryface",
    "1:tackle",
    "1:thunderfang",
    "5:rage",
    "10:pursuit",
    "15:doublehit",
    "20:metalsound",
    "25:crushclaw",
    "30:airslash",
    "35:triattack",
    "40:xscissor",
    "45:crunch",
    "50:takedown",
    "55:doubleedge",
    "60:partingshot",
    "65:punishment",
    "70:razorwind",
    "tm:aerialace",
    "tm:airslash",
    "tm:confide",
    "tm:crunch",
    "tm:doubleteam",
    "tm:dragonclaw",
    "tm:endure",
    "tm:explosion",
    "tm:facade",
    "tm:firefang",
    "tm:flamecharge",
    "tm:flamethrower",
    "tm:flashcannon",
    "tm:frustration",
    "tm:gigaimpact",
    "tm:hail",
    "tm:heatwave",
    "tm:hiddenpower",
    "tm:hyperbeam",
    "tm:hypervoice",
    "tm:icebeam",
    "tm:icefang",
    "tm:icywind",
    "tm:imprison",
    "tm:irondefense",
    "tm:ironhead",
    "tm:outrage",
    "tm:payback",
    "tm:protect",
    "tm:psychicfangs",
    "tm:raindance",
    "tm:rest",
    "tm:return",
    "tm:reversal",
    "tm:roar",
    "tm:rockslide",
    "tm:round",
    "tm:sandstorm",
    "tm:scaryface",
    "tm:selfdestruct",
    "tm:shadowball",
    "tm:shadowclaw",
    "tm:sleeptalk",
    "tm:snarl",
    "tm:snore",
    "tm:steelwing",
    "tm:substitute",
    "tm:sunnyday",
    "tm:surf",
    "tm:swagger",
    "tm:swift",
    "tm:swordsdance",
    "tm:thunderbolt",
    "tm:thunderfang",
    "tm:thunderwave",
    "tm:toxic",
    "tm:triattack",
    "tm:uturn",
    "tm:workup",
    "tm:xscissor",
    "tm:zenheadbutt",
    "tutor:defog",
    "tutor:dracometeor",
    "tutor:grasspledge",
    "tutor:heatwave",
    "tutor:hypervoice",
    "tutor:icywind",
    "tutor:irondefense",
    "tutor:ironhead",
    "tutor:laserfocus",
    "tutor:lastresort",
    "tutor:magiccoat",
    "tutor:multiattack",
    "tutor:outrage",
    "tutor:partingshot",
    "tutor:punishment",
    "tutor:scaryface",
    "tutor:signalbeam",
    "tutor:snore",
    "tutor:steelbeam",
    "tutor:tailwind",
    "tutor:terrainpulse",
    "tutor:zenheadbutt"
  ],
  "labels": [
    "gen7",
    "legendary"
  ],
  "pokedex": [
    "cobblemon.species.silvally.desc"
  ],
  "preEvolution": "typenull",
  "evolutions": [],
  "baseScale": 1,
  "hitbox": {
    "width": 1,
    "height": 1,
    "fixed": false
  },
  "baseFriendship": 0,
  "evYield": {
    "hp": 3,
    "attack": 0,
    "defence": 0,
    "special_attack": 0,
    "special_defence": 0,
    "speed": 0
  },
  "height": 23,
  "weight": 1005,
  "aspects": [],
  "cannotDynamax": false
}