{
  "parent": "minecraft:item/generated",
  "overrides": [
    {
      "model": "minecraft:item/diamond_chestplate_quartz_trim",
      "predicate": {
        "trim_type": 0.1
      }
    },
    {
      "model": "minecraft:item/diamond_chestplate_iron_trim",
      "predicate": {
        "trim_type": 0.2
      }
    },
    {
      "model": "cobblemon:item/diamond_chestplate_fire_stone_trim",
      "predicate": {
        "trim_type": 0.2622
      }
    },
    {
      "model": "cobblemon:item/diamond_chestplate_water_stone_trim",
      "predicate": {
        "trim_type": 0.2623
      }
    },
    {
      "model": "cobblemon:item/diamond_chestplate_thunder_stone_trim",
      "predicate": {
        "trim_type": 0.2624
      }
    },
    {
      "model": "cobblemon:item/diamond_chestplate_leaf_stone_trim",
      "predicate": {
        "trim_type": 0.2625
      }
    },
    {
      "model": "cobblemon:item/diamond_chestplate_moon_stone_trim",
      "predicate": {
        "trim_type": 0.2626
      }
    },
    {
      "model": "cobblemon:item/diamond_chestplate_sun_stone_trim",
      "predicate": {
        "trim_type": 0.2627
      }
    },
    {
      "model": "cobblemon:item/diamond_chestplate_shiny_stone_trim",
      "predicate": {
        "trim_type": 0.2628
      }
    },
    {
      "model": "cobblemon:item/diamond_chestplate_dusk_stone_trim",
      "predicate": {
        "trim_type": 0.2629
      }
    },
    {
      "model": "cobblemon:item/diamond_chestplate_dawn_stone_trim",
      "predicate": {
        "trim_type": 0.2630
      }
    },
    {
      "model": "cobblemon:item/diamond_chestplate_ice_stone_trim",
      "predicate": {
        "trim_type": 0.2631
      }
    },
    {
      "model": "minecraft:item/diamond_chestplate_netherite_trim",
      "predicate": {
        "trim_type": 0.3
      }
    },
    {
      "model": "minecraft:item/diamond_chestplate_redstone_trim",
      "predicate": {
        "trim_type": 0.4
      }
    },
    {
      "model": "minecraft:item/diamond_chestplate_copper_trim",
      "predicate": {
        "trim_type": 0.5
      }
    },
    {
      "model": "minecraft:item/diamond_chestplate_gold_trim",
      "predicate": {
        "trim_type": 0.6
      }
    },
    {
      "model": "minecraft:item/diamond_chestplate_emerald_trim",
      "predicate": {
        "trim_type": 0.7
      }
    },
    {
      "model": "minecraft:item/diamond_chestplate_diamond_darker_trim",
      "predicate": {
        "trim_type": 0.8
      }
    },
    {
      "model": "minecraft:item/diamond_chestplate_lapis_trim",
      "predicate": {
        "trim_type": 0.9
      }
    },
    {
      "model": "minecraft:item/diamond_chestplate_amethyst_trim",
      "predicate": {
        "trim_type": 1.0
      }
    }
  ],
  "textures": {
    "layer0": "minecraft:item/diamond_chestplate"
  }
}