{
    "type": "minecraft:crafting_shaped",
    "pattern": [
        "III",
        "QGQ",
        "RAR"
    ],
    "key": {
        "I": {
            "item": "minecraft:iron_ingot"
        },
        "Q": {
            "item": "minecraft:quartz"
        },
        "G": {
            "item": "minecraft:glass"
        },
        "R": {
            "item": "minecraft:redstone"
        },
        "A": {
            "item": "minecraft:amethyst_shard"
        }
    },
    "result": {
        "item": "cobblemon:fossil_compartment"
    }
}