﻿{
  "name": "Zarude",
  "nationalPokedexNumber": 893,
  "primaryType": "dark",
  "secondaryType": "grass",
  "abilities": [
    "leafguard"
  ],
  "baseStats": {
    "hp": 105,
    "attack": 120,
    "defence": 105,
    "special_attack": 70,
    "special_defence": 95,
    "speed": 105
  },
  "catchRate": 3,
  "maleRatio": -1,
  "shoulderMountable": false,
  "forms": [
    {
      "name": "Dada",
      "primaryType": "dark",
      "secondaryType": "grass",
      "abilities": [
        "leafguard"
      ],
      "baseStats": {
        "hp": 105,
        "attack": 120,
        "defence": 105,
        "special_attack": 70,
        "special_defence": 95,
        "speed": 105
      },
      "catchRate": 3,
      "maleRatio": -1,
      "baseExperienceYield": 300,
      "baseFriendship": 0,
      "evYield": {
        "hp": 0,
        "attack": 3,
        "defence": 0,
        "special_attack": 0,
        "special_defence": 0,
        "speed": 0
      },
      "experienceGroup": "slow",
      "eggCycles": 120,
      "eggGroups": [
        "undiscovered"
      ],
      "moves": [
        "1:bind",
        "1:scratch",
        "6:leer",
        "12:vinewhip",
        "18:growth",
        "24:furyswipes",
        "30:scaryface",
        "36:grassknot",
        "42:bite",
        "48:uturn",
        "54:swagger",
        "60:energyball",
        "66:synthesis",
        "72:hammerarm",
        "78:thrash",
        "84:powerwhip",
        "90:junglehealing",
        "tm:acrobatics",
        "tm:aerialace",
        "tm:assurance",
        "tm:bodyslam",
        "tm:brickbreak",
        "tm:brutalswing",
        "tm:bulkup",
        "tm:bulletseed",
        "tm:closecombat",
        "tm:crunch",
        "tm:darkestlariat",
        "tm:darkpulse",
        "tm:dig",
        "tm:drainpunch",
        "tm:encore",
        "tm:endure",
        "tm:energyball",
        "tm:facade",
        "tm:fling",
        "tm:gigadrain",
        "tm:gigaimpact",
        "tm:grassknot",
        "tm:grassyterrain",
        "tm:helpinghand",
        "tm:hyperbeam",
        "tm:hypervoice",
        "tm:irontail",
        "tm:leafstorm",
        "tm:lowkick",
        "tm:lowsweep",
        "tm:magicalleaf",
        "tm:megakick",
        "tm:megapunch",
        "tm:mudshot",
        "tm:nastyplot",
        "tm:payback",
        "tm:powerwhip",
        "tm:protect",
        "tm:rest",
        "tm:revenge",
        "tm:rockslide",
        "tm:rocktomb",
        "tm:round",
        "tm:scaryface",
        "tm:seedbomb",
        "tm:sleeptalk",
        "tm:snarl",
        "tm:snore",
        "tm:solarbeam",
        "tm:solarblade",
        "tm:stompingtantrum",
        "tm:substitute",
        "tm:sunnyday",
        "tm:superpower",
        "tm:swift",
        "tm:swordsdance",
        "tm:takedown",
        "tm:taunt",
        "tm:terablast",
        "tm:thief",
        "tm:throatchop",
        "tm:trailblaze",
        "tm:uturn",
        "tutor:energyball",
        "tutor:grassyglide",
        "tutor:hammerarm",
        "tutor:junglehealing",
        "tutor:lashout",
        "tutor:powerwhip"
      ],
      "labels": [
        "gen8",
        "mythical",
        "legendary"
      ],
      "aspects": [
        "dada"
      ],
      "height": 18,
      "weight": 700,
      "cannotDynamax": false,
      "battleOnly": false
    }
  ],
  "baseExperienceYield": 300,
  "experienceGroup": "slow",
  "eggCycles": 120,
  "eggGroups": [
    "undiscovered"
  ],
  "moves": [
    "1:bind",
    "1:scratch",
    "6:leer",
    "12:vinewhip",
    "18:growth",
    "24:furyswipes",
    "30:scaryface",
    "36:grassknot",
    "42:bite",
    "48:uturn",
    "54:swagger",
    "60:energyball",
    "66:synthesis",
    "72:hammerarm",
    "78:thrash",
    "84:powerwhip",
    "90:junglehealing",
    "tm:acrobatics",
    "tm:aerialace",
    "tm:assurance",
    "tm:bodyslam",
    "tm:brickbreak",
    "tm:brutalswing",
    "tm:bulkup",
    "tm:bulletseed",
    "tm:closecombat",
    "tm:crunch",
    "tm:darkestlariat",
    "tm:darkpulse",
    "tm:dig",
    "tm:drainpunch",
    "tm:encore",
    "tm:endure",
    "tm:energyball",
    "tm:facade",
    "tm:fling",
    "tm:gigadrain",
    "tm:gigaimpact",
    "tm:grassknot",
    "tm:grassyterrain",
    "tm:helpinghand",
    "tm:hyperbeam",
    "tm:hypervoice",
    "tm:irontail",
    "tm:leafstorm",
    "tm:lowkick",
    "tm:lowsweep",
    "tm:magicalleaf",
    "tm:megakick",
    "tm:megapunch",
    "tm:mudshot",
    "tm:nastyplot",
    "tm:payback",
    "tm:powerwhip",
    "tm:protect",
    "tm:rest",
    "tm:revenge",
    "tm:rockslide",
    "tm:rocktomb",
    "tm:round",
    "tm:scaryface",
    "tm:seedbomb",
    "tm:sleeptalk",
    "tm:snarl",
    "tm:snore",
    "tm:solarbeam",
    "tm:solarblade",
    "tm:stompingtantrum",
    "tm:substitute",
    "tm:sunnyday",
    "tm:superpower",
    "tm:swift",
    "tm:swordsdance",
    "tm:takedown",
    "tm:taunt",
    "tm:terablast",
    "tm:thief",
    "tm:throatchop",
    "tm:trailblaze",
    "tm:uturn",
    "tutor:closecombat",
    "tutor:grassyglide",
    "tutor:lashout",
    "tutor:powerwhip",
    "tutor:snarl",
    "tutor:swagger"
  ],
  "labels": [
    "gen8",
    "mythical",
    "legendary"
  ],
  "pokedex": [
    "cobblemon.species.zarude.desc"
  ],
  "evolutions": [],
  "baseScale": 1,
  "hitbox": {
    "width": 1,
    "height": 1,
    "fixed": false
  },
  "baseFriendship": 0,
  "evYield": {
    "hp": 0,
    "attack": 3,
    "defence": 0,
    "special_attack": 0,
    "special_defence": 0,
    "speed": 0
  },
  "height": 18,
  "weight": 700,
  "aspects": [],
  "cannotDynamax": false
}