{
	"format_version": "1.12.0",
	"minecraft:geometry": [
		{
			"description": {
				"identifier": "geometry.anorith_fetus",
				"texture_width": 32,
				"texture_height": 32,
				"visible_bounds_width": 3,
				"visible_bounds_height": 1.5,
				"visible_bounds_offset": [0, 0.25, 0]
			},
			"bones": [
				{
					"name": "anorith",
					"pivot": [0, 0, 0]
				},
				{
					"name": "body",
					"parent": "anorith",
					"pivot": [0, 1.75, 0]
				},
				{
					"name": "head",
					"parent": "body",
					"pivot": [0, 2.25, -5.4],
					"cubes": [
						{"origin": [-3.7, 0.75, -7.4], "size": [4, 2, 4], "pivot": [-1.35, 1.75, -3.15], "rotation": [0, -45, 0], "uv": [0, 10]}
					]
				},
				{
					"name": "mandibles",
					"parent": "head",
					"pivot": [0, 0.75, -5.65]
				},
				{
					"name": "mandible_arm_left",
					"parent": "mandibles",
					"pivot": [1.25, 0.75, -5.65],
					"cubes": [
						{"origin": [0.75, -0.75, -5.65], "size": [1, 2, 0], "uv": [2, 12]}
					]
				},
				{
					"name": "mandible_arm_left2",
					"parent": "mandible_arm_left",
					"pivot": [1.25, -0.75, -5.65],
					"cubes": [
						{"origin": [-1, -2.75, -5], "size": [1, 2, 1], "pivot": [1.75, -2.75, -3], "rotation": [0, -45, 0], "uv": [8, 25]}
					]
				},
				{
					"name": "mandible_arm_right",
					"parent": "mandibles",
					"pivot": [-1.25, 0.75, -5.65],
					"cubes": [
						{"origin": [-1.75, -0.75, -5.65], "size": [1, 2, 0], "uv": [0, 12]}
					]
				},
				{
					"name": "mandible_arm_right2",
					"parent": "mandible_arm_right",
					"pivot": [-1.25, -0.75, -5.65],
					"cubes": [
						{"origin": [0, -2.75, -5], "size": [1, 2, 1], "pivot": [-1.75, -2.75, -3], "rotation": [0, 45, 0], "uv": [0, 25]}
					]
				},
				{
					"name": "eyes",
					"parent": "head",
					"pivot": [-1.9, 1.75, -6.15]
				},
				{
					"name": "eye_stem_right",
					"parent": "eyes",
					"pivot": [-0.9, 1.75, -5.75],
					"cubes": [
						{"origin": [-3.5, 1.25, -6.25], "size": [3, 1, 1], "uv": [14, 6]}
					]
				},
				{
					"name": "right_eye",
					"parent": "eye_stem_right",
					"pivot": [-3.5, 1.75, -5.75],
					"cubes": [
						{"origin": [-3.7, 2.75, -4.75], "size": [-2, -2, -2], "inflate": -0.2, "uv": [24, 4]}
					]
				},
				{
					"name": "right_pupil",
					"parent": "right_eye",
					"pivot": [-4.5, 1.75, -5.75],
					"cubes": [
						{"origin": [-5.7, 1.25, -6.25], "size": [2, 1, 1], "inflate": 0.01, "uv": [0, 29]}
					]
				},
				{
					"name": "eye_stem_left",
					"parent": "eyes",
					"pivot": [0.9, 1.75, -5.75],
					"cubes": [
						{"origin": [0.5, 1.25, -6.25], "size": [3, 1, 1], "uv": [16, 8]}
					]
				},
				{
					"name": "left_eye",
					"parent": "eye_stem_left",
					"pivot": [3.5, 1.75, -5.75],
					"cubes": [
						{"origin": [5.7, 2.75, -4.75], "size": [-2, -2, -2], "inflate": -0.2, "uv": [32, 4]}
					]
				},
				{
					"name": "left_pupil",
					"parent": "left_eye",
					"pivot": [4.5, 1.75, -5.75],
					"cubes": [
						{"origin": [3.7, 1.25, -6.25], "size": [2, 1, 1], "uv": [6, 29]}
					]
				},
				{
					"name": "abdomen",
					"parent": "body",
					"pivot": [0, 1.25, -5],
					"cubes": [
						{"origin": [-3, 0.75, -5], "size": [6, 2, 2], "inflate": 0.01, "uv": [0, 6]}
					]
				},
				{
					"name": "abdomen2",
					"parent": "abdomen",
					"pivot": [0, 2.75, -3],
					"cubes": [
						{"origin": [-3, 0.75, -3], "size": [6, 2, 4], "inflate": 0.02, "uv": [0, 0]}
					]
				},
				{
					"name": "wings",
					"parent": "abdomen2",
					"pivot": [0, 1.75, -1.65]
				},
				{
					"name": "wing_right",
					"parent": "wings",
					"pivot": [-3, 1.75, -1.75],
					"cubes": [
						{"origin": [-6.5, 1.75, -2.75], "size": [4, 0, 2], "uv": [22, 18]}
					]
				},
				{
					"name": "wing_left",
					"parent": "wings",
					"pivot": [3, 1.75, -1.75],
					"cubes": [
						{"origin": [2.5, 1.75, -2.75], "size": [4, 0, 2], "uv": [22, 16]}
					]
				},
				{
					"name": "wings2",
					"parent": "abdomen2",
					"pivot": [0, 1.75, 0.35]
				},
				{
					"name": "wing_right2",
					"parent": "wings2",
					"pivot": [-3, 1.75, 0.35],
					"cubes": [
						{"origin": [-6.5, 1.75, -0.65], "size": [4, 0, 2], "uv": [22, 12]}
					]
				},
				{
					"name": "wing_left2",
					"parent": "wings2",
					"pivot": [3, 1.75, 0.35],
					"cubes": [
						{"origin": [2.5, 1.75, -0.65], "size": [4, 0, 2], "uv": [22, 14]}
					]
				},
				{
					"name": "abdomen3",
					"parent": "abdomen2",
					"pivot": [0, 2.75, 1],
					"cubes": [
						{"origin": [-2.5, 0.75, 1], "size": [5, 2, 3], "inflate": 0.01, "uv": [0, 16]}
					]
				},
				{
					"name": "wings3",
					"parent": "abdomen3",
					"pivot": [0, 1.75, 2.85]
				},
				{
					"name": "wing_right3",
					"parent": "wings3",
					"pivot": [-2.5, 1.75, 2.65],
					"cubes": [
						{"origin": [-6, 1.75, 1.65], "size": [4, 0, 2], "uv": [22, 8]}
					]
				},
				{
					"name": "wing_left3",
					"parent": "wings3",
					"pivot": [2.5, 1.75, 2.65],
					"cubes": [
						{"origin": [2, 1.75, 1.65], "size": [4, 0, 2], "uv": [22, 10]}
					]
				},
				{
					"name": "abdomen4",
					"parent": "abdomen3",
					"pivot": [0, 2.75, 4],
					"cubes": [
						{"origin": [-2, 0.75, 4], "size": [4, 2, 2], "uv": [0, 21]}
					]
				},
				{
					"name": "wings4",
					"parent": "abdomen4",
					"pivot": [0, 1.75, 4.95]
				},
				{
					"name": "wing_right4",
					"parent": "wings4",
					"pivot": [-2, 1.75, 4.95],
					"cubes": [
						{"origin": [-5, 1.75, 3.95], "size": [3, 0, 2], "uv": [23, 4]}
					]
				},
				{
					"name": "wing_left4",
					"parent": "wings4",
					"pivot": [2, 1.75, 4.95],
					"cubes": [
						{"origin": [2, 1.75, 3.95], "size": [3, 0, 2], "uv": [23, 6]}
					]
				},
				{
					"name": "tail",
					"parent": "abdomen4",
					"pivot": [0, 2, 6],
					"cubes": [
						{"origin": [-1, 1, 5.5], "size": [2, 1, 3], "uv": [1, 25]}
					]
				},
				{
					"name": "right_tail_fin",
					"parent": "tail",
					"pivot": [-1, 1.5, 7.3],
					"cubes": [
						{"origin": [-3, 1.5, 6.8], "size": [2, 0, 1], "uv": [-1, 11]}
					]
				},
				{
					"name": "left_tail_fin",
					"parent": "tail",
					"pivot": [1, 1.5, 7.3],
					"cubes": [
						{"origin": [1, 1.5, 6.8], "size": [2, 0, 1], "uv": [-1, 10]}
					]
				}
			]
		}
	]
}