{
	"format_version": "1.12.0",
	"minecraft:geometry": [
		{
			"description": {
				"identifier": "geometry.tirtouga_fetus",
				"texture_width": 64,
				"texture_height": 32,
				"visible_bounds_width": 3,
				"visible_bounds_height": 1.5,
				"visible_bounds_offset": [0, 0.25, 0]
			},
			"bones": [
				{
					"name": "tirtouga_fetus",
					"pivot": [0, 0, 0]
				},
				{
					"name": "body",
					"parent": "tirtouga_fetus",
					"pivot": [0, 2.5, 0]
				},
				{
					"name": "torso",
					"parent": "body",
					"pivot": [0, 2.75, -0.5],
					"cubes": [
						{"origin": [-3, 1.5, -5], "size": [6, 3, 9], "uv": [0, 12]},
						{"origin": [-3.5, 0, -5.5], "size": [7, 2, 10], "inflate": -0.15, "uv": [0, 0]}
					]
				},
				{
					"name": "fin_right_rot",
					"parent": "torso",
					"pivot": [-3, 3, -4],
					"rotation": [0, -20, 0]
				},
				{
					"name": "fin_right",
					"parent": "fin_right_rot",
					"pivot": [-3, 3, -4],
					"cubes": [
						{"origin": [-6.5, 3, -6], "size": [4, 0, 4], "uv": [-4, 12]}
					]
				},
				{
					"name": "fin_right2",
					"parent": "fin_right",
					"pivot": [-6.5, 3, -6],
					"cubes": [
						{"origin": [-10.5, 3, -6], "size": [4, 0, 6], "uv": [18, 24]}
					]
				},
				{
					"name": "fin_back_right_rot",
					"parent": "torso",
					"pivot": [-3, 3, 2.5]
				},
				{
					"name": "fin_back_right",
					"parent": "fin_back_right_rot",
					"pivot": [-3, 3, 3],
					"cubes": [
						{"origin": [-5.5, 3, 1], "size": [3, 0, 3], "uv": [9, 27]}
					]
				},
				{
					"name": "fin_back_right2",
					"parent": "fin_back_right",
					"pivot": [-5.5, 3, 1],
					"cubes": [
						{"origin": [-8.5, 3, 1], "size": [3, 0, 5], "uv": [-5, 27]}
					]
				},
				{
					"name": "fin_back_left_rot",
					"parent": "torso",
					"pivot": [3, 3, 2.5]
				},
				{
					"name": "fin_back_left",
					"parent": "fin_back_left_rot",
					"pivot": [3, 3, 3],
					"cubes": [
						{"origin": [2.5, 3, 1], "size": [3, 0, 3], "uv": [15, 27]}
					]
				},
				{
					"name": "fin_back_left2",
					"parent": "fin_back_left",
					"pivot": [5.5, 3, 1],
					"cubes": [
						{"origin": [5.5, 3, 1], "size": [3, 0, 5], "uv": [1, 27]}
					]
				},
				{
					"name": "fin_left_rot",
					"parent": "torso",
					"pivot": [3, 3, -4],
					"rotation": [0, 20, 0]
				},
				{
					"name": "fin_left",
					"parent": "fin_left_rot",
					"pivot": [3, 3, -4],
					"cubes": [
						{"origin": [2.5, 3, -6], "size": [4, 0, 4], "uv": [-4, 16]}
					]
				},
				{
					"name": "fin_left2",
					"parent": "fin_left",
					"pivot": [6.5, 3, -6],
					"cubes": [
						{"origin": [6.5, 3, -6], "size": [4, 0, 6], "uv": [26, 24]}
					]
				},
				{
					"name": "tail",
					"parent": "torso",
					"pivot": [0, 3.5, 4],
					"cubes": [
						{"origin": [0, 2, 3], "size": [0, 2, 4], "uv": [0, 4]}
					]
				},
				{
					"name": "shell",
					"parent": "torso",
					"pivot": [0, 6, 5.5],
					"cubes": [
						{"origin": [0, 4, -5.5], "size": [4, 2, 10], "pivot": [0, 6, 4.5], "rotation": [0, 0, 15], "uv": [34, 0]},
						{"origin": [-4, 4, -5.5], "size": [4, 2, 10], "pivot": [0, 6, 4.5], "rotation": [0, 0, -15], "uv": [30, 12]}
					]
				},
				{
					"name": "neck",
					"parent": "torso",
					"pivot": [0, 2.5, -5],
					"cubes": [
						{"origin": [-1.5, 1, -8], "size": [3, 3, 4], "uv": [21, 12]}
					]
				},
				{
					"name": "head",
					"parent": "neck",
					"pivot": [0, 2.5, -7.5],
					"cubes": [
						{"origin": [-2, 1.5, -12], "size": [4, 4, 5], "uv": [24, 0]},
						{"origin": [-1, 1, -11.99], "size": [2, 2, 0], "pivot": [0, 2, -12], "rotation": [0, 0, 45], "uv": [4, 0]},
						{"origin": [-2, 0.5, -9], "size": [4, 1, 2], "uv": [0, 24]}
					]
				},
				{
					"name": "eye_right",
					"parent": "head",
					"pivot": [-3, 5, -10.5],
					"cubes": [
						{"origin": [-2.81, 2.5, -10], "size": [1, 2, 2], "inflate": 0.01, "uv": [0, 0]}
					]
				},
				{
					"name": "eye_left",
					"parent": "head",
					"pivot": [3, 5, -10.5],
					"cubes": [
						{"origin": [1.81, 2.5, -10], "size": [1, 2, 2], "inflate": 0.01, "uv": [0, 4], "mirror": true}
					]
				},
				{
					"name": "jaw",
					"parent": "head",
					"pivot": [0, 1.5, -9],
					"cubes": [
						{"origin": [-2, 0.5, -11], "size": [4, 1, 2], "inflate": 0.01, "uv": [12, 24]}
					]
				}
			]
		}
	]
}