{
  "type": "minecraft:archaeology",
  "pools": [
    {
      "bonus_rolls": 0.0,
      "entries": [
        {
          "type": "minecraft:item",
          "name": "minecraft:emerald",
          "weight": 2
        }
      ],
      "rolls": 2.0
    }
  ],
  "random_sequence": "cobblemon:ruins/placeholder"
}